%YAML 1.1
%TAG !u! tag:unity3d.com,2011:
--- !u!114 &11400000
MonoBehaviour:
  m_ObjectHideFlags: 0
  m_CorrespondingSourceObject: {fileID: 0}
  m_PrefabInstance: {fileID: 0}
  m_PrefabAsset: {fileID: 0}
  m_GameObject: {fileID: 0}
  m_Enabled: 1
  m_EditorHideFlags: 0
  m_Script: {fileID: 11500000, guid: 1127db541c66bc145a11c40459533301, type: 3}
  m_Name: Data
  m_EditorClassIdentifier: 
  jsonFileName: data.json
  translatedContent:
    LanguageId: 0
    LanguageName: 
    Topics: []
